com\charantorn\mycomponent\ProductPanel$2.class
com\charantorn\mycomponent\TestDialog$1$1.class
com\charantorn\mycomponent\ProductPanel.class
com\charantorn\mycomponent\TestDialog.class
com\charantorn\mycomponent\TestDialog$1.class
com\charantorn\mycomponent\ProductPanel$1.class
